{
	"count": 962,
	"next": "https://{{adbos_ip}}/api/v1/scrubbingenvironments/{{env_id}}/monitor/{{device}}/events/?chart=table&unit=bps&orderby=-time&limit=5&offset=0",
	"previous": null,
	"results": [{
		"id": 492104,
		"device_name": "NTG-7.X",
		"scrubbing_monitor_group": null,
		"scrubbing_monitor_point": null,
		"event_id": "3126047",
		"resource_id": 116,
		"dstip": "121.37.63.17",
		"start_time": "2021-05-26T00:40:00Z",
		"end_time": null,
		"update_time": "2021-05-26T00:40:00Z",
		"attack_type": "ACK Flooding",
		"severity": "Yellow",
		"importance": "Regular",
		"current": 8217080000,
		"threshold": 8000000000,
		"unit": "bps",
		"country": "china",
		"provence": "guangdong",
		"city": "shenzhen",
		"device_ip": "59.37.150.31"
	}, {
		"id": 492105,
		"device_name": "NTG-7.X",
		"scrubbing_monitor_group": null,
		"scrubbing_monitor_point": null,
		"event_id": "3126048",
		"resource_id": 267,
		"dstip": "202.96.128.166",
		"start_time": "2021-05-26T00:40:00Z",
		"end_time": null,
		"update_time": "2021-05-26T00:40:00Z",
		"attack_type": "UDP Flooding",
		"severity": "Yellow",
		"importance": "Regular",
		"current": 1002722133,
		"threshold": 1000000000,
		"unit": "bps",
		"country": "china",
		"provence": "guangdong",
		"city": "shenzhen",
		"device_ip": "59.37.150.31"
	}, {
		"id": 492098,
		"device_name": "NTG-7.X",
		"scrubbing_monitor_group": null,
		"scrubbing_monitor_point": null,
		"event_id": "3126039",
		"resource_id": 311,
		"dstip": "14.215.158.100",
		"start_time": "2021-05-26T00:38:00Z",
		"end_time": null,
		"update_time": "2021-05-26T00:38:00Z",
		"attack_type": "TCP SYN Flooding",
		"severity": "Yellow",
		"importance": "Regular",
		"current": 100504800,
		"threshold": 100000000,
		"unit": "bps",
		"country": "china",
		"provence": "guangdong",
		"city": "shenzhen",
		"device_ip": "59.37.150.31"
	}, {
		"id": 492099,
		"device_name": "NTG-7.X",
		"scrubbing_monitor_group": null,
		"scrubbing_monitor_point": null,
		"event_id": "3126038",
		"resource_id": 2423,
		"dstip": "121.12.156.106",
		"start_time": "2021-05-26T00:36:00Z",
		"end_time": null,
		"update_time": "2021-05-26T00:36:00Z",
		"attack_type": "ACK Flooding",
		"severity": "Yellow",
		"importance": "Regular",
		"current": 15190400,
		"threshold": 8000000,
		"unit": "bps",
		"country": "china",
		"provence": "guangdong",
		"city": "shenzhen",
		"device_ip": "59.37.150.31"
	}, {
		"id": 492102,
		"device_name": "NTG-7.X",
		"scrubbing_monitor_group": null,
		"scrubbing_monitor_point": null,
		"event_id": "3126036",
		"resource_id": 311,
		"dstip": "14.215.158.101",
		"start_time": "2021-05-26T00:35:00Z",
		"end_time": null,
		"update_time": "2021-05-26T00:35:00Z",
		"attack_type": "TCP SYN Flooding",
		"severity": "Yellow",
		"importance": "Regular",
		"current": 108956267,
		"threshold": 100000000,
		"unit": "bps",
		"country": "china",
		"provence": "guangdong",
		"city": "shenzhen",
		"device_ip": "59.37.150.31"
	}]
}